Churn and Default
…
## `summarise()` has grouped output by 'user_id'. You can override using the
## `.groups` argument.

 # filter(count_accts > 1) 

temp

## # A tibble: 812 × 6
## # Groups:   user_id [620]
##    user_id utility_acct_number tenure count_accts default count_churn
##      <dbl> <chr>                <int>       <int>   <int>       <dbl>
##  1      17 1769073011              23          23       0        0   
##  2      19 7989248005               3           3       0        1   
##  3      31 689005016               21          44       0        2.10
##  4      32 21002383038             22          23       0        0   
##  5      33 2155441000              15          30       0        2   
##  6      33 2536130080              17          34       0        2   
##  7      37 21003282874             22          46       0        0   
##  8      38 21001139837             22          69       0        0   
##  9      39 7376061001              22          44       0        0   
## 10      42 4381440011              15          15       0        1   
## # … with 802 more rows
…
